/* XPM */
static char * W1_xpm[] = {
"64 64 17 1",
" 	c #343434",
".	c #BFBFBF",
"+	c #A8A8A8",
"@	c #969696",
"#	c #858585",
"$	c #2E2E2E",
"%	c #797979",
"&	c #232323",
"*	c #6E6E6E",
"=	c #D0D0D0",
"-	c #454545",
";	c #515151",
">	c #5C5C5C",
",	c #626262",
"'	c #1D1D1D",
")	c #E7E7E7",
"!	c #F9F9F9",
"                                                                ",
"..........+@@#$  #@@+.....................+@@#$  #@@+...........",
"++++@+++++..+%&  #@+@+++.+++++++..+@+@+##@@@+%&  #++++@*%@#@@+++",
"..+++@+....+.%&  ###+++..+++@+++.+.++++++++@+%&  #..+@@%%@#+@@..",
"..@@+++++.+++%&  #@++++.+++++++++.+++++=++@+@%&  #++.+++#%++++..",
"+.+++++.....#%&  #+@+++++++@@+@++.+.=..+++@@#%&  #++.@@++@@+++.=",
"+.+++++++.+.+%&  #..++++@++++@#+@@++..+++@#%#%&  #+++..++.+..+.+",
"++++++...++++%&  #.+.+@++@+@++#++@++.+++@+@%#%&  #@+++++.=.++...",
"-----;;;;>,***&  ***,>;;;------------;;;;>,***&  ***,>;;;-------",
"'''''''''''''''  ''''''''''''''''''''''''''''''  '''''''''''''''",
"$$$$$$$$$$$$$$$  $$$$$$$$$$$$$$$$$$$$$$$$$$$$$$ $$$$$$$$$$$$$$$$",
" #@@+.....................+@@#$  #@@+.....................+@@#$ ",
" #++.=++++##++++..+++++++@@++%&  #++++++++++++++==+++=+...+++%& ",
" #++.+++#+++@@++.++++++++++++%&  #.+@@++++...+.+...+=..==+...%& ",
" #++++++#+++++++.+.+@@++++++.%&  #+++##++++.++++==)+.==.=..++%& ",
" #+++++@+++..+.+++..++++.+.+.%&  #+@#@@@+...=..=====++.......%& ",
" #@+++++.+.+..+++++.++...++..%&  #+@#++++++=.=..=...++...==.+%& ",
" #++++@++.=....++++++++..)=++%&  #++++++..++.===..+.+++=++++@%& ",
" #++@+.+.+.+.++..+++=====....%&  #@#+#%+++.++=...++@+.++++.+@%& ",
" ***,>;;;------------;;;;>,***&  ***,>;;;------------;;;;>,***& ",
" ''''''''''''''''''''''''''''''  '''''''''''''''''''''''''''''' ",
" $$$$$$$$$$$$$$$$$$$$$$$$$$$$$$  $$$$$$$$$$$$$$$$$$$$$$$$$$$$$$ ",
"..........+@@#$  #@@+.....................+@@#$  #@@+...........",
"+..=.=.=))==)%&  #.=)==.=.++.+.++++.@%@*#++.+%&  #+@+.++@@@++.+.",
"==..==)==))==%&  #..==..+===.+++@++++#@#*@@.+%&  #.+++.++++++..=",
"..=.=.=))=).+%&  #......++..+++##@@+++@@##.+.%&  #.++++++++++..=",
"==...=====)=+%&  #.+.==...++@@#@@@@@+@+++#+++%&  #++@++.+.++....",
".=+..++.=.=.+%&  #..+....+++#+@@@+@++++@@++++%&  #++..++.==.=..=",
"+=.+@++.....+%&  #+++..+@@@@#@#@++@++..++++@+%&  #+.++=..==+...+",
".++.++++++++.%&  #...++.=@++@@+@@++++++++++++%&  #.===).=)).===.",
"-----;;;;>,***&  ***,>;;;------------;;;;>,***&  ***,>;;;-------",
"'''''''''''''''  ''''''''''''''''''''''''''''''  '''''''''''''''",
"$$$$$$$$$$$$$$$  $$$$$$$$$$$$$$$$$$$$$$$$$$$$$$  $$$$$$$$$$$$$$$",
" #@@+.....................+@@#$  #@@+.....................+@@#$ ",
" #@@#++.+...++.+.=.=..=..+.+.%&  #....=.==..=++..===.=.+.++++%& ",
" #@+@#++.+++@+++.==..===.++++%&  #.+..==.==....+..=.++.++.+++%& ",
" #+++#++++..@#@+++...++.=).@+%&  #+==)=)).=.+.+++...+...+++++%& ",
" #++@@%#++++.@+@+...+......@@%&  #+=.==..==++..+#@+@=+++++@@@%& ",
" #++++@#++..++++++=.=.+.==.+@%&  #.+==.==+++@@+++@++++.++++@#%& ",
" #+@#@@%#++..+.+.++..+++++=++%&  #.+==..+.+++#+++@@+@+++++..+%& ",
" #++@@@#%#++..=..+..+.+++.++@%&  #++..=.+++++##+++++++++.++.+%& ",
" ***,>;;;------------;;;;>,***&  ***,>;;;------------;;;;>,***& ",
" ''''''''''''''''''''''''''''''  '''''''''''''''''''''''''''''' ",
" $$$$$$$$$$$$$$$$$$$$$$$$$$$$$$  $$$$$$$$$$$$$$$$$$$$$$$$$$$$$$ ",
"..........+@@#$  #@@+.....................+@@#$  #@@+...........",
"++@+++@#@@#+@%&  #+++++.+.+@@+++++..+.=.+++++%&  #.+..=..)==.=).",
"++@@@+@@@.+@+%&  #+.++++++++@++++++...++##@++%&  #++.=)===+=...=",
".++#+@++++.+@%&  #.+.+..=+++##@+.+.+....+@+#+%&  #+.+))!.==..+..",
".+.+@+++++.++%&  #.+.+=...++#@#...+++..+=.+#+%&  #...))))....+.+",
"+++@@+++++++.%&  #.=.+.+++++@+@@++++++.+++++@%&  #===.))!.+..++.",
"+.++@#++.++.)%&  #=.++++.++@@@*##++++.==+.++@%&  #..=..==)=+++.+",
"++...=++==...%&  #+..+++++++@++@@@#+++.==....%&  #.++.+=)==.+.+.",
"-----;;;;>,***&  ***,>;;;------------;;;;>,***&  ***,>;;;-------",
"'''''''''''''''  ''''''''''''''''''''''''''''''  '''''''''''''''",
"$$$$$$$$$$$$$$$  $$$$$$$$$$$$$$$$$$$$$$$$$$$$$$  $$$$$$$$$$$$$$$",
" #@@+.....................+@@#$  #@@+.....................+@@#$ ",
" #++.+..=...=.++...+@#+@+++..%&  #.+.++++===.=.++..++++@+..+=%& ",
" #+++.+==))=+++++.+.+@+++.+=.%&  #@+++++++=.=...+.+++++++++.=%& ",
" #+@+.+=====+.+@++++.+@...+=.%&  ##+++++++.+..++++@+++++.++.+%& ",
" ###+#=.==)=++@+@++++.++..==+%&  #++++@@@@++..+++#+@+.++..+..%& ",
" #+#+++..==).++##++.+.++....+%&  ##+++#@@@@@.+.++#++@...==++@%& ",
" #+@#+++..+.++++@++.+..++.+..%&  #+#@#+#@+#@++..++@+++=..+..@%& ",
" ***,>;;;------------;;;;>,***&  ***,>;;;------------;;;;>,***& ",
" ''''''''''''''''''''''''''''''  '''''''''''''''''''''''''''''' "};
